[7, 7]
[7]
[7, 7]
[7]
[7, 7]
[-493]
[-493]
[-493, -493]
[7]
[7, 7]
[7]
[7, 7]
[7]
[7, 7]
[7, 7]
[7]
[7, 7]
[7]
[7, 7]
[7]
[7, 7]
[7]
[7, 7]
[7]
[7, 7]
[7]
[7, 7]
[7, 7]
[7]
[7, 7]
[7]
[7, 7]
[7]
[7, 7]
[7]
[7, 7]
[7]
[7, 7]
[7, 7]
[7]
[7, 7]
[7]
[7, 7]
[7]
[7, 7]
[7]
[7]
[7, 7]
[7]
[7, 7]
[7]
[7, 7]
[7, 7]
[7]
[7, 7]
[7]
[7, 7]
[7]
[7]
[7]
[7, 7]
[7]
[7, 7]
[7]
[7, 7]
[7, 7]
[7]
[7, 7]
[7]
[7, 7]
[7]
[7]
[7]
[7]
[7, 7]
[-493]
[-493]
[-493]
[7, 7]
[7]
[7]
[7]
[-493, 7]
[-493]
[-492]
[7, 7]
[7]
[7]
[7]
[7]
[7]
[7]
[-492, 7]
[7, -492]
[7, 7]
[7]
[7, 7]
[7]
[7, 7]
[-503]
[-503]
[-503, -503]
[7]
[7, 7]
[7]
[7, 7]
[7]
[7, 7]
[-3, -3]
[-3]
[-3, -3]
[-3]
[-3, -3]
[7]
[7, 7]
[7]
[-3, -3]
[-3]
[-3, -3]
[-3]
[-3, -3]
[-3]
[-502, -3]
[-502]
[-493]
[-493]
[-493, -493]
[-493]
[7, 7]
[7]
[7, 7]
[7]
[7, 7]
[7]
[-493, 7]
[-493]
[7]
[7, 7]
[7]
[7, 7]
[7]
[7, 7]
[-3, -3]
[-3]
[-3, -3]
[-3]
[-3, -3]
[7]
[7]
[7]
[-3, -3]
[-3]
[-3, -3]
[-3]
[-3, -3]
[-3]
[-3]
[-3]
[7, 7]
[7]
[7, 7]
[7]
[7, 7]
[7]
[7]
[7]
[7]
[7, 7]
[-503]
[-503]
[-493]
[-3, -3]
[-3]
[-3]
[-3]
[-493, -3]
[-493]
[-3, -3]
[-3]
[-3]
[-3]
[-502, -3]
[-502]
[-493]
[-493]
[7, 7]
[7]
[7]
[7]
[7, 7]
[7]
[7]
[7, 7]
[7]
[7]
[7]
[7, 7]
[7]
[7]
[-3, -3]
[-3]
[-3]
[-3]
[-3]
[-3]
[-3, -3]
[-3]
[-3]
[-3]
[-3]
[-3]
[7, 7]
[7]
[7]
[-493]
[-493]
[7]
[7]
[7]
[7]
[7, 7]
[7, 7]
[6]
[6]
[6, 6]
[6]
[6]
[6]
[6, 6]
[6]
[6, 6]
[6]
[6]
[6]
[6, 6]
[6]
[6]
[6]
[6, 6]
[6]
[6, 6]
[6]
[6, 6]
[6]
[6]
[6, 6]
[6]
[6]
[6]
[6, 6]
[6]
[6]
[6]
[6, 6]
[6]
[6]
[6]
[6, 6]
[6]
[6, 6]
[6]
[6]
[6]
[6, 6]
[6]
[6]
[6]
[6, 6]
[6]
[6]
[6]
[6, 6]
[6]
[6]
[6]
[6, 6]
[6]
[6, 6]
[6]
[6, 6]
[6]
[6]
[6]
[6]
[-494]
[-494]
[-494]
[6]
[6]
[6]
[6]
[6]
[6]
[6, 6]
[6]
[6]
[6]
[6]
[-494]
[6]
[6]
[6]
[-494]
[6, 6]
[6]
[6, 6]
[6]
[6]
[6]
[6]
[6]
[6]
[6]
[6]
[6]
[6]
[6]
[6]
[6, 6]
[6]
[6]
[6]
[6]
[6]
[6]
[6]
[6]
[6]
[6]
[6]
[6]
[6]
[6, 6]
[6]
[6, 6]
[6]
[6, 6]
[6]
[6]
[6]
[6, 6]
[6]
[6]
[6]
[6, 6]
[6]
[6, 6]
[6]
[6]
[6]
[6, 6]
[6]
[6]
[6]
[6, 6]
[6]
[6, 6]
[6]
[6, 6]
[6]
[6]
[6, 6]
[6]
[6]
[6]
[6, 6]
[6]
[6, 6]
[6]
[6, -493]
[6]
[6]
[6]
[6]
[-504]
[-504]
[-504]
[6]
[6]
[6]
[-4]
[-4]
[-4]
[6, 6]
[6]
[6]
[6]
[6]
[-504]
[6]
[6]
[6]
[-504]
[6, 6]
[6]
[6, 6]
[-4]
[-4]
[-4]
[-4]
[-4]
[-4]
[-503, -4]
[-503]
[-504]
[-4]
[-4]
[-4]
[-503, -4]
[-503]
[-503, -503]
[-494]
[-494]
[-494]
[6]
[6]
[6]
[6]
[6]
[6]
[6]
[6]
[6]
[6, 6]
[6]
[6, -493]
[6]
[6, 6]
[6]
[-495, 5]
[-495]
[-495]
[5, 5]
[5]
[5]
[5]
[5]
[5]
[-494]
[-494]
[-494]
[5]
[5]
[5]
[5]
[5]
[5]
[5]
[5]
[5]
[5]
[5]
[5]
[5]
[5]
[5]
[515]
[515]
[515]
[5, 515]
[5]
[-495, 5]
[-495]
[-495, -495]
[5, 5]
[5]
[5, 5]
[5]
[5, 5]
[5]
[5]
[5]
[-494]
[5]
[5]
[-495, 5]
[5]
[5]
[5]
[5]
[5, 5]
[5]
[5]
[5]
[-494]
[5, 5]
[5]
[5, 5]
[-495, 5]
[-495]
[-495]
[5, 5]
[5]
[5]
[5]
[5]
[5]
[5, 5]
[5]
[5]
[5, 5]
[5]
[5]
[5]
[5]
[5]
[5]
[5]
[5]
[5]
[5]
[5]
[5]
[5]
[5]
[5]
[5]
[5]
[5]
[5]
[5]
[5]
[5]
[5]
[5, 5]
[5]
[-495, 5]
[-495]
[-495, -495]
[5, 5]
[5]
[5, 5]
[5]
[5, 5]
[5]
[5]
[5]
[5, 5]
[5]
[5, 5]
[5]
[5, 5]
[5, 5]
[5]
[5, 5]
[5]
[5, 5]
[5]
[5]
[5]
[5]
[5]
[-495, 5]
[5]
[5]
[5]
[5]
[5, 5]
[5]
[5]
[5]
[5]
[5]
[5]
[5]
[5, 5]
[5]
[5]
[5]
[5]
[5, 5]
[5]
[5]
[5]
[5, 5]
[5]
[5, 5]
[4]
[4]
[4, 4]
[4]
[4]
[4]
[4, 4]
[4]
[4]
[4]
[-495, 4]
[-496]
[4]
[4]
[4, 4]
[4]
[4]
[4]
[4]
[4]
[4, 4]
[4]
[4]
[4]
[4, 4]
[4]
[4]
[4]
[4, 4]
[4]
[4]
[4]
[-494]
[3, 3]
[3]
[3, 3]
[3]
[3, 3]
[3, 3]
[3]
[3, 3]
[3]
[3, 3]
[3]
[3, 3]
[3]
[3, 3]
[3]
[3, 3]
[3, 3]
[3]
[3, 3]
[3]
[3, 3]
[3]
[3, 3]
[3]
[3, 3]
[3]
[3, 3]
[3]
[3, 3]
[513]
[3, 3]
[3]
[3, 3]
[3]
[3, 3]
[3, 3]
[3]
[3, 3]
[3]
[3, 3]
[513]
[513, 513]
[513]
[513]
[513]
[-495, 513]
[-496]
[-497, 3]
[-497]
[-497]
[-497]
[-497]
[-497, 3]
[-497]
[-497]
[-497]
[-497]
[-497, -497]
[-497]
[-496]
[-496]
[3, 3]
[3]
[3, 3]
[3]
[3, 3]
[3, 3]
[3]
[3, 3]
[3]
[3, 3]
[3]
[3, 3]
[3]
[3, 3]
[3]
[3, 3]
[3, 3]
[3]
[3, 3]
[3]
[3, 3]
[3]
[3, 3]
[3]
[-497, 3]
[-497]
[-497, 3]
[-497]
[-497, -497]
[3, 3]
[3]
[3, 3]
[3]
[3, 3]
[3]
[-497, 3]
[-497]
[-497, 3]
[-497]
[-497, -497]
[3, 3]
[3]
[3, 3]
[3]
[3, 3]
[3]
[3, 3]
[3]
[3]
[3]
[-496, 3]
[2]
[2]
[2, 2]
[2]
[-498, 2]
[-498]
[-498]
[-497]
[2]
[2]
[2]
[-498, 2]
[-498]
[-498]
[-497]
[-497, -497]
[-497]
Pacman died! Score: -496
[7, 7]
[7]
[7, 7]
[7]
[7, 7]
[-493]
[-493]
[-493, -493]
[7]
[7, 7]
[7]
[7, 7]
[7]
[7, 7]
[7, 7]
[7]
[7, 7]
[7]
[7, 7]
[7]
[7, 7]
[7]
[7, 7]
[7]
[7, 7]
[7]
[7, 7]
[7, 7]
[7]
[7, 7]
[7]
[7, 7]
[7]
[7, 7]
[7]
[7, 7]
[7]
[7, 7]
[7, 7]
[7]
[7, 7]
[7]
[7, 7]
[7]
[7, 7]
[7]
[7]
[7, 7]
[7]
[7, 7]
[7]
[7, 7]
[7, 7]
[7]
[7, 7]
[7]
[7, 7]
[7]
[7]
[7]
[7, 7]
[7]
[7, 7]
[7]
[7, 7]
[7, 7]
[7]
[7, 7]
[7]
[7, 7]
[7]
[7]
[7]
[7]
[7, 7]
[-493]
[-493]
[-493]
[7, 7]
[7]
[7]
[7]
[-493, 7]
[-493]
[-492]
[7, 7]
[7]
[7]
[7]
[7]
[7]
[7]
[-492, 7]
[7, -492]
[7, 7]
[7]
[7, 7]
[7]
[7, 7]
[-503]
[-503]
[-503, -503]
[7]
[7, 7]
[7]
[7, 7]
[7]
[7, 7]
[-3, -3]
[-3]
[-3, -3]
[-3]
[-3, -3]
[7]
[7, 7]
[7]
[-3, -3]
[-3]
[-3, -3]
[-3]
[-3, -3]
[-3]
[-502, -3]
[-502]
[-493]
[-493]
[-493, -493]
[-493]
[7, 7]
[7]
[7, 7]
[7]
[7, 7]
[7]
[-493, 7]
[-493]
[7]
[7, 7]
[7]
[7, 7]
[7]
[7, 7]
[-3, -3]
[-3]
[-3, -3]
[-3]
[-3, -3]
[7]
[7]
[7]
[-3, -3]
[-3]
[-3, -3]
[-3]
[-3, -3]
[-3]
[-3]
[-3]
[7, 7]
[7]
[7, 7]
[7]
[7, 7]
[7]
[7]
[7]
[7]
[7, 7]
[-503]
[-503]
[-493]
[-3, -3]
[-3]
[-3]
[-3]
[-493, -3]
[-493]
[-3, -3]
[-3]
[-3]
[-3]
[-502, -3]
[-502]
[-493]
[-493]
[7, 7]
[7]
[7]
[7]
[7, 7]
[7]
[7]
[7, 7]
[7]
[7]
[7]
[7, 7]
[7]
[7]
[-3, -3]
[-3]
[-3]
[-3]
[-3]
[-3]
[-3, -3]
[-3]
[-3]
[-3]
[-3]
[-3]
[7, 7]
[7]
[7]
[-493]
[-493]
[7]
[7]
[7]
[7]
[7, 7]
[7, 7]
[-492]
[-503]
[6]
[6]
[6, 6]
[6]
[6]
[6]
[6, 6]
[6]
[6, 6]
[6]
[6]
[6]
[-503]
[-504]
[-4]
[-4]
[-4]
[-503, -4]
[-503]
[-503]
[-494]
[6]
[6]
[6]
[-494]
[6]
[6]
[6]
[6, 6]
[6]
[6]
[6]
[6, 6]
[6]
[5, 5]
[5]
[5, 5]
[5]
[5, 5]
[5]
[5]
[5]
[-505]
[-505]
[-505, -505]
[-505]
[-505]
[-505]
[5]
[5]
[5]
[5]
[5, 5]
[5]
[5]
[5]
[5, 5]
[5]
[5]
Pacman died! Score: -503
[7, 7]
[7]
[7, 7]
[7]
[7, 7]
[-493]
[-493]
[-493, -493]
[7]
[7, 7]
[7]
[7, 7]
[7]
[7, 7]
[7, 7]
[7]
[7, 7]
[7]
[7, 7]
[7]
[7, 7]
[7]
[7, 7]
[7]
[7, 7]
[7]
[7, 7]
[7, 7]
[7]
[7, 7]
[7]
[7, 7]
[7]
[7, 7]
[7]
[7, 7]
[7]
[7, 7]
[7, 7]
[7]
[7, 7]
[7]
[7, 7]
[7]
[7, 7]
[7]
[7]
[7, 7]
[7]
[7, 7]
[7]
[7, 7]
[7, 7]
[7]
[7, 7]
[7]
[7, 7]
[7]
[7]
[7]
[7, 7]
[7]
[7, 7]
[7]
[7, 7]
[7, 7]
[7]
[7, 7]
[7]
[7, 7]
[7]
[7]
[7]
[7]
[7, 7]
[-493]
[-493]
[-493]
[7, 7]
[7]
[7]
[7]
[-493, 7]
[-493]
[-492]
[7, 7]
[7]
[7]
[7]
[7]
[7]
[7]
[-492, 7]
[7, -492]
[7, 7]
[7]
[7, 7]
[7]
[7, 7]
[-503]
[-503]
[-503, -503]
[7]
[7, 7]
[7]
[7, 7]
[7]
[7, 7]
[-3, -3]
[-3]
[-3, -3]
[-3]
[-3, -3]
[7]
[7, 7]
[7]
[-3, -3]
[-3]
[-3, -3]
[-3]
[-3, -3]
[-3]
[-502, -3]
[-502]
[-493]
[-493]
[-493, -493]
[-493]
[7, 7]
[7]
[7, 7]
[7]
[7, 7]
[7]
[-493, 7]
[-493]
[7]
[7, 7]
[7]
[7, 7]
[7]
[7, 7]
[-3, -3]
[-3]
[-3, -3]
[-3]
[-3, -3]
[7]
[7]
[7]
[-3, -3]
[-3]
[-3, -3]
[-3]
[-3, -3]
[-3]
[-3]
[-3]
[7, 7]
[7]
[7, 7]
[7]
[7, 7]
[7]
[7]
[7]
[7]
[7, 7]
[-503]
[-503]
[-493]
[-3, -3]
[-3]
[-3]
[-3]
[-493, -3]
[-493]
[-3, -3]
[-3]
[-3]
[-3]
[-502, -3]
[-502]
[-493]
[-493]
[7, 7]
[7]
[7]
[7]
[7, 7]
[7]
[7]
[7, 7]
[7]
[7]
[7]
[7, 7]
[7]
[7]
[-3, -3]
[-3]
[-3]
[-3]
[-3]
[-3]
[-3, -3]
[-3]
[-3]
[-3]
[-3]
[-3]
[7, 7]
[7]
[7]
[-493]
[-493]
[7]
[7]
[7]
[7]
[7, 7]
[7, 7]
[6]
[6]
[6, 6]
[6]
[-494]
[-494]
[-494, -494]
[-494]
[6]
[6]
[6, 6]
[6]
[6]
[6]
[6, 6]
[6]
[6, 6]
[6]
[6]
[6]
[6, 6]
[6]
[-494]
[6]
[6]
[6, 6]
[6]
[-494]
[6, 6]
[6]
[6, 6]
[6]
[6]
[6, 6]
[6]
[6]
[6]
[6, 6]
[6]
[6]
[6]
[6, 6]
[6]
[6]
[6]
[6, 6]
[6]
[6, 6]
[6]
[6]
[6]
[6, 6]
[6]
[6]
[6]
[6, 6]
[6]
[6]
[6]
[6, 6]
[6]
[6]
[6]
[6, 6]
[6]
[6, 6]
[6]
[6, 6]
[6]
[6]
[6]
[6]
[6]
[6, 6]
[6]
[-504]
[-504]
[-504, -504]
[-504]
[6]
[6]
[6, 6]
[6]
[-4]
[-4]
[-4, -4]
[-4]
[6, 6]
[6]
[6]
[6]
[6, 6]
[6]
[-504]
[6]
[6]
[6, 6]
[6]
[-504]
[6, 6]
[6]
[6, 6]
[-4]
[-4]
[-4, -4]
[-4]
[-4]
[-4]
[-4, -4]
[-4]
[-503, -4]
[-503]
[-504]
[-4]
[-4]
[-4, -4]
[-4]
[-503, -4]
[-503]
[-503, -503]
[-494]
[-494]
[-494, -494]
[-494]
[6]
[6]
[6, 6]
[6]
[-494, 6]
[-494]
[-494, -493]
[6]
[6]
[6]
[5, 5]
[5]
[5]
[5]
[5, 5]
[5]
[5]
[5]
[5, 5]
[5]
[5, 5]
[5]
[5]
[-495]
[-495]
[5]
[5, 5]
[5]
[5]
[5, 5]
[5]
[5]
[5]
[5, 5]
[5]
[5]
[5]
[5]
[5]
[5]
[5]
[5]
[5]
[5]
[5]
[-495]
[-495]
[5]
[5, 5]
[5]
[5]
[5]
[5]
[-495]
[-495]
[5]
[5]
[5]
[5]
[5]
[5]
[5]
[5]
[5, 5]
[5]
[5, 5]
[5]
[5, 5]
[5]
[5, 5]
[5]
[5, 5]
[5]
[5, 5]
[5]
[5, 5]
[5]
[5, 5]
[5]
[5, 5]
[5]
[5, 5]
[5]
[5, 5]
[5]
[5, 5]
[-495]
[-495]
[-495, -495]
[5]
[5, 5]
[5]
[5, 5]
[5]
[5, 5]
[5, 5]
[5]
[5, 5]
[5]
[5, 5]
[5]
[5, 5]
[5]
[5]
[5]
[5]
[5]
[5, 5]
[5]
[5]
[5]
[5]
[5]
[5, 5]
[5]
[5, 5]
[5]
[5]
[5]
[5]
[5]
[5, 5]
[-495]
[-495]
[-495, -495]
[5]
[5]
[5]
[5]
[5]
[5, 5]
[5]
[5]
[5]
[5]
[5, 5]
[5]
[5, 5]
[5]
[5, 5]
[5]
[5, 5]
[5, 5]
[5]
[5]
[5]
[5, 5]
[5]
[5]
[5]
[5, 5]
[5]
[5, 5]
[5]
[5]
[5]
[5, -494]
[-494]
[5]
[5]
[5]
[-5]
[-5]
[-5]
[5]
[5]
[5]
[5]
[-505]
[-505]
[5]
[5, 5]
[5]
[-5]
[-5]
[-5]
[-5]
[-5]
[-5]
[-5]
[-505]
[-505]
[-5]
[-5]
[-5]
[-5]
[-5, -5]
[-5]
[5]
[5]
[5]
[5]
[5]
[5]
[5]
[5, -494]
[-494]
[5, 5]
[5]
[5, 5]
[5]
[5, 5]
[5]
[5, 5]
[5]
[5, 5]
[5]
[5, 5]
[5]
[5, 5]
[5]
[5, 5]
[5]
[5]
[5]
[5]
[5]
[5, 5]
[5]
[5]
[5]
[5]
[5]
[5, 5]
[5]
[5, 5]
[5]
[-5]
[-5]
[-5]
[-5]
[-5, -5]
[-5]
[-5]
[-5]
[-5]
[-5]
[-5, -5]
[-5]
[-5, -5]
[-5]
[5, 5]
[5]
[5, 5]
[-496]
[-496]
[4]
[4]
[4]
[-496]
[-496]
[-496, 4]
[-496]
[-496]
[-495]
[4]
[4]
[4, 4]
[4]
[4]
[-496, 4]
[-496]
[4]
[4]
[4, 4]
[4]
[4, 4]
[4]
[4]
[4]
[-495, 4]
[-495]
[-496]
[-496]
[4]
[4]
[4]
[-496]
[-496]
[-496, 4]
[-496]
[-496]
[-495]
[-495]
[-495]
[4]
[4]
[4, 4]
[4]
[4]
[-496, 4]
[-496]
[4]
[4]
[4, 4]
[4]
[4, 4]
[4]
[4]
[4]
[4]
[4, 4]
[4]
[4]
[4]
[4, 4]
[4]
[4]
[4]
[4, 4]
[4]
[4]
[4]
[4, 4]
[4]
[4, 4]
[4]
[4]
[4]
[-495, 4]
[-495]
[-496]
[-496]
[-497]
[-497]
[-497, -497]
[3, 3]
[3]
[3, 3]
[3]
[3, 3]
[3]
[3]
[3]
[-496]
[-496]
[-496, 3]
[-496]
[-496]
Pacman died! Score: -495
[7, 7]
[7]
[7, 7]
[7]
[7, 7]
[-493]
[-493]
[-493, -493]
[7]
[7, 7]
[7]
[7, 7]
[7]
[7, 7]
[7, 7]
[7]
[7, 7]
[7]
[7, 7]
[7]
[7, 7]
[7]
[7, 7]
[7]
[7, 7]
[7]
[7, 7]
[7, 7]
[7]
[7, 7]
[7]
[7, 7]
[7]
[7, 7]
[7]
[7, 7]
[7]
[7, 7]
[7, 7]
[7]
[7, 7]
[7]
[7, 7]
[7]
[7, 7]
[7]
[7]
[7, 7]
[7]
[7, 7]
[7]
[7, 7]
[7, 7]
[7]
[7, 7]
[7]
[7, 7]
[7]
[7]
[7]
[7, 7]
[7]
[7, 7]
[7]
[7, 7]
[7, 7]
[7]
[7, 7]
[7]
[7, 7]
[7]
[7]
[7]
[7]
[7, 7]
[-493]
[-493]
[-493]
[7, 7]
[7]
[7]
[7]
[-493, 7]
[-493]
[-492]
[7, 7]
[7]
[7]
[7]
[7]
[7]
[7]
[-492, 7]
[7, -492]
[7, 7]
[7]
[7, 7]
[7]
[7, 7]
[-503]
[-503]
[-503, -503]
[7]
[7, 7]
[7]
[7, 7]
[7]
[7, 7]
[-3, -3]
[-3]
[-3, -3]
[-3]
[-3, -3]
[7]
[7, 7]
[7]
[-3, -3]
[-3]
[-3, -3]
[-3]
[-3, -3]
[-3]
[-502, -3]
[-502]
[-493]
[-493]
[-493, -493]
[-493]
[7, 7]
[7]
[7, 7]
[7]
[7, 7]
[7]
[-493, 7]
[-493]
[7]
[7, 7]
[7]
[7, 7]
[7]
[7, 7]
[-3, -3]
[-3]
[-3, -3]
[-3]
[-3, -3]
[7]
[7]
[7]
[-3, -3]
[-3]
[-3, -3]
[-3]
[-3, -3]
[-3]
[-3]
[-3]
[7, 7]
[7]
[7, 7]
[7]
[7, 7]
[7]
[7]
[7]
[7]
[7, 7]
[-503]
[-503]
[-493]
[-3, -3]
[-3]
[-3]
[-3]
[-493, -3]
[-493]
[-3, -3]
[-3]
[-3]
[-3]
[-502, -3]
[-502]
[-493]
[-493]
[7, 7]
[7]
[7]
[7]
[7, 7]
[7]
[7]
[7, 7]
[7]
[7]
[7]
[7, 7]
[7]
[7]
[-3, -3]
[-3]
[-3]
[-3]
[-3]
[-3]
[-3, -3]
[-3]
[-3]
[-3]
[-3]
[-3]
[7, 7]
[7]
[7]
[-493]
[-493]
[7]
[7]
[7]
[7]
[7, 7]
[7, 7]
[-492]
[-503]
[-504]
[-4]
[-4]
[-4, -4]
[-4]
[-503, -4]
[-503]
[-503]
[-494]
[-494]
[-494, -494]
[-494]
[-494]
[-494]
[-494]
[-494]
Pacman died! Score: -492
[7, 7]
[7]
[7, 7]
[7]
[7, 7]
[-493]
[-493]
[-493, -493]
[7]
[7, 7]
[7]
[7, 7]
[7]
[7, 7]
[7, 7]
[7]
[7, 7]
[7]
[7, 7]
[7]
[7, 7]
[7]
[7, 7]
[7]
[7, 7]
[7]
[7, 7]
[7, 7]
[7]
[7, 7]
[7]
[7, 7]
[7]
[7, 7]
[7]
[7, 7]
[7]
[7, 7]
[7, 7]
[7]
[7, 7]
[7]
[7, 7]
[7]
[7, 7]
[7]
[7]
[7, 7]
[7]
[7, 7]
[7]
[7, 7]
[7, 7]
[7]
[7, 7]
[7]
[7, 7]
[7]
[7]
[7]
[7, 7]
[7]
[7, 7]
[7]
[7, 7]
[7, 7]
[7]
[7, 7]
[7]
[7, 7]
[7]
[7]
[7]
[7]
[7, 7]
[-493]
[-493]
[-493]
[7, 7]
[7]
[7]
[7]
[-493, 7]
[-493]
[-492]
[7, 7]
[7]
[7]
[7]
[7]
[7]
[7]
[-492, 7]
[7, -492]
[7, 7]
[7]
[7, 7]
[7]
[7, 7]
[-503]
[-503]
[-503, -503]
[7]
[7, 7]
[7]
[7, 7]
[7]
[7, 7]
[-3, -3]
[-3]
[-3, -3]
[-3]
[-3, -3]
[7]
[7, 7]
[7]
[-3, -3]
[-3]
[-3, -3]
[-3]
[-3, -3]
[-3]
[-502, -3]
[-502]
[-493]
[-493]
[-493, -493]
[-493]
[7, 7]
[7]
[7, 7]
[7]
[7, 7]
[7]
[-493, 7]
[-493]
[7]
[7, 7]
[7]
[7, 7]
[7]
[7, 7]
[-3, -3]
[-3]
[-3, -3]
[-3]
[-3, -3]
[7]
[7]
[7]
[-3, -3]
[-3]
[-3, -3]
[-3]
[-3, -3]
[-3]
[-3]
[-3]
[7, 7]
[7]
[7, 7]
[7]
[7, 7]
[7]
[7]
[7]
[7]
[7, 7]
[-503]
[-503]
[-493]
[-3, -3]
[-3]
[-3]
[-3]
[-493, -3]
[-493]
[-3, -3]
[-3]
[-3]
[-3]
[-502, -3]
[-502]
[-493]
[-493]
[7, 7]
[7]
[7]
[7]
[7, 7]
[7]
[7]
[7, 7]
[7]
[7]
[7]
[7, 7]
[7]
[7]
[-3, -3]
[-3]
[-3]
[-3]
[-3]
[-3]
[-3, -3]
[-3]
[-3]
[-3]
[-3]
[-3]
[7, 7]
[7]
[7]
[-493]
[-493]
[7]
[7]
[7]
[7]
[7, 7]
[7, 7]
[6]
[6]
[6, 6]
[6]
[6]
[6]
[6, 6]
[6]
[6, 6]
[6]
[6]
[6]
[6, 6]
[6]
[6]
[6]
[6, 6]
[6]
[6, 6]
[6]
[6, 6]
[6]
[6]
[6, 6]
[6]
[6]
[6]
[6, 6]
[6]
[6]
[6]
[6, 6]
[6]
[6]
[6]
[6, 6]
[6]
[6, 6]
[6]
[6]
[6]
[6, 6]
[6]
[6]
[6]
[6, 6]
[6]
[6]
[6]
[6, 6]
[6]
[6]
[6]
[6, 6]
[6]
[6, 6]
[6]
[6, 6]
[6]
[6]
[6]
[6]
[-494]
[-494]
[-494]
[6]
[6]
[6]
[6]
[6]
[6]
[6, 6]
[6]
[6]
[6]
[6]
[-494]
[6]
[6]
[6]
[-494]
[6, 6]
[6]
[6, 6]
[6]
[6]
[6]
[6]
[6]
[6]
[6]
[6]
[6]
[6]
[6]
[6]
[6, 6]
[6]
[6]
[6]
[6]
[6]
[6]
[6]
[6]
[6]
[6]
[6]
[6]
[6]
[6, 6]
[6]
[6, 6]
[6]
[6, 6]
[6]
[6]
[6]
[6, 6]
[6]
[6]
[6]
[6, 6]
[6]
[6, 6]
[6]
[6]
[6]
[6, 6]
[6]
[6]
[6]
[6, 6]
[6]
[6, 6]
[6]
[6, 6]
[6]
[6]
[6, 6]
[6]
[6]
[6]
[6, 6]
[6]
[6, 6]
[6]
[6, -493]
[6]
[6]
[6]
[6]
[-504]
[-504]
[-504]
[6]
[6]
[6]
[-4]
[-4]
[-4]
[6, 6]
[6]
[6]
[6]
[6]
[-504]
[6]
[6]
[6]
[-504]
[6, 6]
[6]
[6, 6]
[-4]
[-4]
[-4]
[-4]
[-4]
[-4]
[-503, -4]
[-503]
[-504]
[-4]
[-4]
[-4]
[-503, -4]
[-503]
[-503, -503]
[-494]
[-494]
[-494]
[6]
[6]
[6]
[6]
[6]
[6]
[6]
[6]
[6]
[6, 6]
[6]
[6, -493]
[6]
[6, 6]
[6]
[5, 5]
[5]
[5]
[5]
[-495, 5]
[-495]
[-495]
[5, 5]
[5]
[5]
[5]
[5, 5]
[5]
[5]
[5]
[5]
[5]
[5]
[5]
[5]
[5]
[5]
[5]
[5]
[5, 5]
[5]
[5, 5]
[5]
[5, 5]
[5]
[5, 5]
[5]
[5, 5]
[5]
[-495, 5]
[-495]
[-495, -495]
[5, 5]
[5]
[5, 5]
[5]
[5, 5]
[5]
[5, 5]
[5]
[5]
[5]
[5]
[5]
[5, 5]
[5]
[5]
[5]
[-495, 5]
[5]
[5]
[5]
[5]
[5, 5]
[5]
[5, 5]
[5]
[5, 5]
[5]
[5, 5]
[5, 5]
[5]
[5]
[5]
[-495, 5]
[-495]
[-495]
[5, 5]
[5]
[5]
[5]
[5, 5]
[5]
[5, 5]
[5]
[5]
[5, 5]
[5]
[5]
[5]
[5, 5]
[5]
[5]
[5, 5]
[5]
[5]
[5]
[5, 5]
[5]
[5]
[5]
[5]
[5]
[5]
[5]
[5]
[5]
[5]
[5]
[5]
[5, 5]
[5]
[5]
[5]
[5]
[5]
[5]
[5]
[5]
[5]
[5]
[5]
[5]
[5]
[5]
[5]
[5, 5]
[5]
[5, 5]
[5]
[5, 5]
[5]
[5, 5]
[5]
[5, 5]
[5]
[-495, 5]
[-495]
[-495, -495]
[5, 5]
[5]
[5, 5]
[5]
[5, 5]
[5]
[5, 5]
[5]
[5, 5]
[5]
[5, 5]
[5]
[5, 5]
[5, 5]
[5]
[5, 5]
[5]
[5, 5]
[5]
[5, 5]
[5]
[5, 5]
[5]
[5, 5]
[5, 5]
[5]
[5, 5]
[5]
[5, 5]
[5]
[5, 5]
[5]
[5]
[5]
[5]
[5]
[5, 5]
[5]
[5]
[5]
[-495, 5]
[5]
[5]
[5]
[5]
[5, 5]
[5]
[5, 5]
[5]
[5]
[5]
[5]
[5]
[5, 5]
[5]
[5]
[5]
[5]
[5, 5]
[5]
[5]
[5]
[5]
[5]
[5, 5]
[5]
[5]
[5]
[5]
[5, 5]
[5]
[5, 5]
[5]
[5, 5]
[5]
[5, 5]
[4]
[4]
[4]
[4]
[4]
[4]
[4, 4]
[4]
[4]
[4]
[4]
[4]
[4]
[4]
[4, 4]
[4]
[4, 4]
[4]
[4]
[4]
[4, 4]
[4]
[4]
[4]
[4, 4]
[4]
[-495, 4]
[-495]
[-495, -495]
[-496]
[4]
[4]
[4, 4]
[4]
[-496]
[4]
[4]
[4, 4]
[4]
[4, 4]
[4]
[-496]
[-496]
[-496, -496]
[-496]
[4]
[4]
[4, 4]
[4]
[4]
[4]
[4, 4]
[4]
[4]
[4]
[4, 4]
[4]
[4, 4]
[4]
[4, 4]
[4]
[4, 4]
[4]
[3]
[3]
[3]
[3]
[3]
[3]
[-497, 3]
[-497]
[-497]
[-497]
[-497]
[-497]
[3, -496]
[-496]
[3]
[3]
[3]
[3]
[3, 3]
[3]
[3]
[3]
[-497, 3]
[-497]
[-497, 3]
[-497]
[-497, -497]
[-497]
[-497]
[-497]
[3, -496]
[-496]
[-496, -496]
Pacman died! Score: -495
[7, 7]
[7]
[7, 7]
[7]
[7, 7]
[-493]
[-493]
[-493, -493]
[7]
[7, 7]
[7]
[7, 7]
[7]
[7, 7]
[7, 7]
[7]
[7, 7]
[7]
[7, 7]
[7]
[7, 7]
[7]
[7, 7]
[7]
[7, 7]
[7]
[7, 7]
[7, 7]
[7]
[7, 7]
[7]
[7, 7]
[7]
[7, 7]
[7]
[7, 7]
[7]
[7, 7]
[7, 7]
[7]
[7, 7]
[7]
[7, 7]
[7]
[7, 7]
[7]
[7]
[7, 7]
[7]
[7, 7]
[7]
[7, 7]
[7, 7]
[7]
[7, 7]
[7]
[7, 7]
[7]
[7]
[7]
[7, 7]
[7]
[7, 7]
[7]
[7, 7]
[7, 7]
[7]
[7, 7]
[7]
[7, 7]
[7]
[7]
[7]
[7]
[7, 7]
[-493]
[-493]
[-493]
[7, 7]
[7]
[7]
[7]
[-493, 7]
[-493]
[-492]
[7, 7]
[7]
[7]
[7]
[7]
[7]
[7]
[-492, 7]
[7, -492]
[7, 7]
[7]
[7, 7]
[7]
[7, 7]
[-503]
[-503]
[-503, -503]
[7]
[7, 7]
[7]
[7, 7]
[7]
[7, 7]
[-3, -3]
[-3]
[-3, -3]
[-3]
[-3, -3]
[7]
[7, 7]
[7]
[-3, -3]
[-3]
[-3, -3]
[-3]
[-3, -3]
[-3]
[-502, -3]
[-502]
[-493]
[-493]
[-493, -493]
[-493]
[7, 7]
[7]
[7, 7]
[7]
[7, 7]
[7]
[-493, 7]
[-493]
[7]
[7, 7]
[7]
[7, 7]
[7]
[7, 7]
[-3, -3]
[-3]
[-3, -3]
[-3]
[-3, -3]
[7]
[7]
[7]
[-3, -3]
[-3]
[-3, -3]
[-3]
[-3, -3]
[-3]
[-3]
[-3]
[7, 7]
[7]
[7, 7]
[7]
[7, 7]
[7]
[7]
[7]
[7]
[7, 7]
[-503]
[-503]
[-493]
[-3, -3]
[-3]
[-3]
[-3]
[-493, -3]
[-493]
[-3, -3]
[-3]
[-3]
[-3]
[-502, -3]
[-502]
[-493]
[-493]
[7, 7]
[7]
[7]
[7]
[7, 7]
[7]
[7]
[7, 7]
[7]
[7]
[7]
[7, 7]
[7]
[7]
[-3, -3]
[-3]
[-3]
[-3]
[-3]
[-3]
[-3, -3]
[-3]
[-3]
[-3]
[-3]
[-3]
[7, 7]
[7]
[7]
[-493]
[-493]
[7]
[7]
[7]
[7]
[7, 7]
[7, 7]
[-492]
[-503]
[6]
[6]
[6, 6]
[6]
[6]
[6]
[6, 6]
[6]
[6, 6]
[6]
[6]
[6]
[-503]
[-504]
[-4]
[-4]
[-4]
[-503, -4]
[-503]
[-503]
[-494]
[6]
[6]
[6]
[-494]
[6]
[6]
[6]
[6, 6]
[6]
[6]
[6]
[6, 6]
[6]
[5, 5]
[5]
[5, 5]
[5]
[5, 5]
[5]
[5]
[5]
[-505]
[-505]
[-505, -505]
[-505]
[-505]
[-505]
[5]
[5]
[5]
[5]
[5, 5]
[5]
[5]
[5]
[5, 5]
[5]
[5]
Pacman died! Score: -503
[7, 7]
[7]
[7, 7]
[7]
[7, 7]
[-493]
[-493]
[-493, -493]
[7]
[7, 7]
[7]
[7, 7]
[7]
[7, 7]
[7, 7]
[7]
[7, 7]
[7]
[7, 7]
[7]
[7, 7]
[7]
[7, 7]
[7]
[7, 7]
[7]
[7, 7]
[7, 7]
[7]
[7, 7]
[7]
[7, 7]
[7]
[7, 7]
[7]
[7, 7]
[7]
[7, 7]
[7, 7]
[7]
[7, 7]
[7]
[7, 7]
[7]
[7, 7]
[7]
[7]
[7, 7]
[7]
[7, 7]
[7]
[7, 7]
[7, 7]
[7]
[7, 7]
[7]
[7, 7]
[7]
[7]
[7]
[7, 7]
[7]
[7, 7]
[7]
[7, 7]
[7, 7]
[7]
[7, 7]
[7]
[7, 7]
[7]
[7]
[7]
[7]
[7, 7]
[-493]
[-493]
[-493]
[7, 7]
[7]
[7]
[7]
[-493, 7]
[-493]
[-492]
[7, 7]
[7]
[7]
[7]
[7]
[7]
[7]
[-492, 7]
[7, -492]
[7, 7]
[7]
[7, 7]
[7]
[7, 7]
[-503]
[-503]
[-503, -503]
[7]
[7, 7]
[7]
[7, 7]
[7]
[7, 7]
[-3, -3]
[-3]
[-3, -3]
[-3]
[-3, -3]
[7]
[7, 7]
[7]
[-3, -3]
[-3]
[-3, -3]
[-3]
[-3, -3]
[-3]
[-502, -3]
[-502]
[-493]
[-493]
[-493, -493]
[-493]
[7, 7]
[7]
[7, 7]
[7]
[7, 7]
[7]
[-493, 7]
[-493]
[7]
[7, 7]
[7]
[7, 7]
[7]
[7, 7]
[-3, -3]
[-3]
[-3, -3]
[-3]
[-3, -3]
[7]
[7]
[7]
[-3, -3]
[-3]
[-3, -3]
[-3]
[-3, -3]
[-3]
[-3]
[-3]
[7, 7]
[7]
[7, 7]
[7]
[7, 7]
[7]
[7]
[7]
[7]
[7, 7]
[-503]
[-503]
[-493]
[-3, -3]
[-3]
[-3]
[-3]
[-493, -3]
[-493]
[-3, -3]
[-3]
[-3]
[-3]
[-502, -3]
[-502]
[-493]
[-493]
[7, 7]
[7]
[7]
[7]
[7, 7]
[7]
[7]
[7, 7]
[7]
[7]
[7]
[7, 7]
[7]
[7]
[-3, -3]
[-3]
[-3]
[-3]
[-3]
[-3]
[-3, -3]
[-3]
[-3]
[-3]
[-3]
[-3]
[7, 7]
[7]
[7]
[-493]
[-493]
[7]
[7]
[7]
[7]
[7, 7]
[7, 7]
[-492]
[-503]
[-504]
[-4]
[-4]
[-4, -4]
[-4]
[-503, -4]
[-503]
[-503]
[-494]
[-494]
[-494, -494]
[-494]
[-494]
[-494]
[-494]
[-494]
Pacman died! Score: -492
[7, 7]
[7]
[7, 7]
[7]
[7, 7]
[-493]
[-493]
[-493, -493]
[7]
[7, 7]
[7]
[7, 7]
[7]
[7, 7]
[7, 7]
[7]
[7, 7]
[7]
[7, 7]
[7]
[7, 7]
[7]
[7, 7]
[7]
[7, 7]
[7]
[7, 7]
[7, 7]
[7]
[7, 7]
[7]
[7, 7]
[7]
[7, 7]
[7]
[7, 7]
[7]
[7, 7]
[7, 7]
[7]
[7, 7]
[7]
[7, 7]
[7]
[7, 7]
[7]
[7]
[7, 7]
[7]
[7, 7]
[7]
[7, 7]
[7, 7]
[7]
[7, 7]
[7]
[7, 7]
[7]
[7]
[7]
[7, 7]
[7]
[7, 7]
[7]
[7, 7]
[7, 7]
[7]
[7, 7]
[7]
[7, 7]
[7]
[7]
[7]
[7]
[7, 7]
[-493]
[-493]
[-493]
[7, 7]
[7]
[7]
[7]
[-493, 7]
[-493]
[-492]
[7, 7]
[7]
[7]
[7]
[7]
[7]
[7]
[-492, 7]
[7, -492]
[7, 7]
[7]
[7, 7]
[7]
[7, 7]
[-503]
[-503]
[-503, -503]
[7]
[7, 7]
[7]
[7, 7]
[7]
[7, 7]
[-3, -3]
[-3]
[-3, -3]
[-3]
[-3, -3]
[7]
[7, 7]
[7]
[-3, -3]
[-3]
[-3, -3]
[-3]
[-3, -3]
[-3]
[-502, -3]
[-502]
[-493]
[-493]
[-493, -493]
[-493]
[7, 7]
[7]
[7, 7]
[7]
[7, 7]
[7]
[-493, 7]
[-493]
[7]
[7, 7]
[7]
[7, 7]
[7]
[7, 7]
[-3, -3]
[-3]
[-3, -3]
[-3]
[-3, -3]
[7]
[7]
[7]
[-3, -3]
[-3]
[-3, -3]
[-3]
[-3, -3]
[-3]
[-3]
[-3]
[7, 7]
[7]
[7, 7]
[7]
[7, 7]
[7]
[7]
[7]
[7]
[7, 7]
[-503]
[-503]
[-493]
[-3, -3]
[-3]
[-3]
[-3]
[-493, -3]
[-493]
[-3, -3]
[-3]
[-3]
[-3]
[-502, -3]
[-502]
[-493]
[-493]
[7, 7]
[7]
[7]
[7]
[7, 7]
[7]
[7]
[7, 7]
[7]
[7]
[7]
[7, 7]
[7]
[7]
[-3, -3]
[-3]
[-3]
[-3]
[-3]
[-3]
[-3, -3]
[-3]
[-3]
[-3]
[-3]
[-3]
[7, 7]
[7]
[7]
[-493]
[-493]
[7]
[7]
[7]
[7]
[7, 7]
[7, 7]
[6]
[6]
[6, 6]
[6]
[-494]
[-494]
[-494, -494]
[-494]
[6]
[6]
[6, 6]
[6]
[6]
[6]
[6, 6]
[6]
[6, 6]
[6]
[6]
[6]
[6, 6]
[6]
[-494]
[6]
[6]
[6, 6]
[6]
[-494]
[6, 6]
[6]
[6, 6]
[6]
[6]
[6, 6]
[6]
[6]
[6]
[6, 6]
[6]
[6]
[6]
[6, 6]
[6]
[6]
[6]
[6, 6]
[6]
[6, 6]
[6]
[6]
[6]
[6, 6]
[6]
[6]
[6]
[6, 6]
[6]
[6]
[6]
[6, 6]
[6]
[6]
[6]
[6, 6]
[6]
[6, 6]
[6]
[6, 6]
[6]
[6]
[6]
[6]
[6]
[6, 6]
[6]
[-504]
[-504]
[-504, -504]
[-504]
[6]
[6]
[6, 6]
[6]
[-4]
[-4]
[-4, -4]
[-4]
[6, 6]
[6]
[6]
[6]
[6, 6]
[6]
[-504]
[6]
[6]
[6, 6]
[6]
[-504]
[6, 6]
[6]
[6, 6]
[-4]
[-4]
[-4, -4]
[-4]
[-4]
[-4]
[-4, -4]
[-4]
[-503, -4]
[-503]
[-504]
[-4]
[-4]
[-4, -4]
[-4]
[-503, -4]
[-503]
[-503, -503]
[-494]
[-494]
[-494, -494]
[-494]
[6]
[6]
[6, 6]
[6]
[-494, 6]
[-494]
[-494, -493]
[6]
[6]
[6]
[5, 5]
[5]
[5]
[5]
[5, 5]
[5]
[5]
[5]
[5, 5]
[5]
[5, 5]
[5]
[5]
[-495]
[-495]
[5]
[5, 5]
[5]
[5]
[5, 5]
[5]
[5]
[5]
[5, 5]
[5]
[5]
[5]
[5]
[5]
[5]
[5]
[5]
[5]
[5]
[5]
[-495]
[-495]
[5]
[5, 5]
[5]
[5]
[5]
[5]
[-495]
[-495]
[5]
[5]
[5]
[5]
[5]
[5]
[5]
[5]
[5, 5]
[5]
[5, 5]
[5]
[5, 5]
[5]
[5, 5]
[5]
[5, 5]
[5]
[5, 5]
[5]
[5, 5]
[5]
[5, 5]
[5]
[5, 5]
[5]
[5, 5]
[5]
[5, 5]
[5]
[5, 5]
[-495]
[-495]
[-495, -495]
[5]
[5, 5]
[5]
[5, 5]
[5]
[5, 5]
[5, 5]
[5]
[5, 5]
[5]
[5, 5]
[5]
[5, 5]
[5]
[5]
[5]
[5]
[5]
[5, 5]
[5]
[5]
[5]
[5]
[5]
[5, 5]
[5]
[5, 5]
[5]
[5]
[5]
[5]
[5]
[5, 5]
[-495]
[-495]
[-495, -495]
[5]
[5]
[5]
[5]
[5]
[5, 5]
[5]
[5]
[5]
[5]
[5, 5]
[5]
[5, 5]
[5]
[5, 5]
[5]
[5, 5]
[5, 5]
[5]
[5]
[5]
[5, 5]
[5]
[5]
[5]
[5, 5]
[5]
[5, 5]
[5]
[5]
[5]
[5, -494]
[-494]
[5]
[5]
[5]
[-5]
[-5]
[-5]
[5]
[5]
[5]
[5]
[-505]
[-505]
[5]
[5, 5]
[5]
[-5]
[-5]
[-5]
[-5]
[-5]
[-5]
[-5]
[-505]
[-505]
[-5]
[-5]
[-5]
[-5]
[-5, -5]
[-5]
[5]
[5]
[5]
[5]
[5]
[5]
[5]
[5, -494]
[-494]
[5, 5]
[5]
[5, 5]
[5]
[5, 5]
[5]
[5, 5]
[5]
[5, 5]
[5]
[5, 5]
[5]
[5, 5]
[5]
[5, 5]
[5]
[5]
[5]
[5]
[5]
[5, 5]
[5]
[5]
[5]
[5]
[5]
[5, 5]
[5]
[5, 5]
[5]
[-5]
[-5]
[-5]
[-5]
[-5, -5]
[-5]
[-5]
[-5]
[-5]
[-5]
[-5, -5]
[-5]
[-5, -5]
[-5]
[5, 5]
[5]
[5, 5]
[4]
[4]
[4]
[4]
[4]
[4]
[-495, 4]
[-495]
[-495]
[-496]
[-496]
[-496]
[4]
[4]
[4]
[-496, 4]
[-496]
[-496]
[-495]
[4]
[4]
[4, 4]
[4]
[-495, 4]
[-495]
[-495]
[-496]
[-496]
[-496, -496]
[-496]
[4]
[4]
[4, 4]
[4]
[4]
[4]
[4, 4]
[4]
[4]
[4]
[4, 4]
[4]
[4, 4]
[4]
[4]
[4]
[-495, 4]
[-495]
[-504]
[-504]
[-504, -504]
[-504]
[3, 3]
[3]
[3, 3]
[3]
[3, 3]
[3]
[3, 3]
[3]
[3, 3]
[3]
[3, 3]
[3, 3]
[3]
[3, 3]
[3]
[3, 3]
[3]
[3, 3]
[3]
[-495, 3]
[-495]
[-495]
[-496]
[-496]
[-496, -496]
[-496]
[3]
[3]
[3]
[3]
[3, 3]
[-497]
[-497]
[-497]
[-497]
[-497, -497]
[3]
[3]
[3]
[3]
[3]
[3, 3]
[-497]
[-497]
[-497]
[-497]
[-497, -497]
[3]
[3, 3]
[3]
[3, 3]
[3]
[3, 3]
[3]
[3, 3]
[3]
[3, 3]
[3]
[3, 3]
[3]
[3, 3]
[3, 3]
[3]
[3, 3]
[3]
[3, 3]
[3]
[3, 3]
[3]
[-497, 3]
[-497]
[-497, 3]
[-497]
[-497, -497]
[3, 3]
[3]
[3, 3]
[3]
[3, 3]
[3]
[-497, 3]
[-497]
[-497, 3]
[-497]
[-497, -497]
[3, 3]
[3]
[3, 3]
[3]
[3, 3]
[3]
[3, 3]
[3]
[3, 3]
[3]
[3]
[-498]
[-498]
[-498]
[2]
[2]
[2]
[-498, 2]
[-498]
[-498]
[-498]
[-498]
[2]
[2]
[2]
[-498, 2]
[-498]
[-498, -498]
[-497]
[2]
[2]
[2, 2]
[2]
[-498]
[2]
[2]
[2, 2]
[2]
[-498]
[2, 2]
[2]
[2]
[2]
[2, 2]
[2]
[2]
[2]
[2, 2]
[2]
[2]
[2]
[2, 2]
[2]
[2]
[2]
[2, 2]
[2]
[2, 2]
[2]
[2, 2]
[2]
[2]
[2, 2]
[2]
[-498]
[-498]
[-498, -498]
[-498]
[2]
[2]
[2, 2]
[2]
[2]
[2]
[2, 2]
[2]
[2, 2]
[2]
[2]
[2]
[2, 2]
[2]
[-498]
[-498]
[-498, -498]
[-498]
[2]
[2]
[2, 2]
[2]
[2]
[2]
[2, 2]
[2]
[2, 2]
[2]
[2, 2]
[2]
[-497, 2]
[-497]
[1]
[1]
[1]
[1]
[1, 1]
[1]
[1]
[1]
[1]
[1]
[1, 1]
[1]
[1, 1]
[1]
[1]
[1]
[1]
[1]
[1, 1]
[1]
[1]
[1]
[1]
[1]
[1, 1]
[1]
[1, 1]
[1]
[1]
[1]
[1]
[1]
[1, 1]
[1]
[1]
[1]
[1]
[1]
[1, 1]
[1]
[1, 1]
[1]
[1]
[1]
[1]
[1]
[1, 1]
[1]
[1]
[1]
[1]
[1, 1]
[1]
[1]
[1]
[1]
[1]
[1, 1]
[1]
[1]
[1]
[1]
[1, 1]
[1]
[1, 1]
[1]
[1, 1]
[1]
[1]
[1]
[1]
[1]
[1]
[1]
[1]
[1]
[1]
[1]
[1]
[1]
[1]
[1]
[1, 1]
[1]
[1]
[1]
[1]
[1]
[1]
[1]
[1]
[1]
[1, 1]
[1]
[1]
[1]
[1]
[1]
[1]
[1]
[1]
[1]
[1]
[1]
[1]
[1]
[1]
[1]
[1, 1]
[1]
[1]
[1]
[1]
[1]
[1]
[1]
[1]
[1]
[1]
[1]
[1]
[1]
[1]
[1]
[1, 1]
[1]
[1, 1]
[1]
[1, 1]
[1]
[1]
[1]
[1]
[1, 1]
[1]
[1]
[1]
[1]
[1]
[1, 1]
[1]
[1, 1]
[1]
[1]
[1]
[1]
[1]
[1, 1]
[1]
[1]
[1]
[1]
[1]
[1, 1]
[1]
[1, 1]
[1]
[512, 512]
[512]
[1]
[1]
[1]
[1]
[1]
[1]
[1]
[1]
[1]
[1]
[1]
[1]
[1]
[1]
[1, 1]
[1]
[1]
[1]
[1]
[1]
[1]
[1]
[1]
[1]
[1]
[1]
[1]
[1]
[1]
[1]
[1, 1]
[1]
[1]
[1]
[1]
[1]
[1]
[1]
[1]
[1]
[1]
[1]
[1]
[1]
[1]
[1]
[1, 1]
[1]
[1]
[1]
[1]
[1]
[1]
[1]
[1]
[1]
[1]
[1]
[1]
[1]
[1]
[1]
[1, 1]
[1]
[512, 512]
[512]
[512, 512]
[-500]
[-500]
[-500]
[0]
[0]
[0]
[0]
[0]
[-499, 0]
[-499]
[-499]
[-499]
[-499]
[-499, -499]
[-499]
[-500]
[-500]
[-500]
[0]
[0]
[0]
[0]
[0]
[-499, 0]
[-499]
[-499]
[-499]
[-499]
[-499, -499]
[-499]
[-499, -499]
[-499]
[-498]
[-500]
[-500]
[-1]
[-1]
[-1]
[-1]
[-1, -1]
[-1]
[-1]
[-1]
[-1]
[-1]
[-500, -1]
[-500]
[-500]
[-500]
[-501]
[-501]
[-501]
[-501]
[-501, -501]
[-502]
[-502]
[-502, -502]
[-502]
[-2]
[-2]
[-2, -2]
[-2]
[-2]
[-2]
[-502]
[-502]
[-502, -502]
[-502]
[-2]
[-2]
[-2, -2]
[-2]
[-2]
[-2]
[-2, -2]
[509]
[509]
[509]
[-3, -3]
[-3]
[-3]
[-3]
[-3, -3]
[-3]
[-3]
[-3]
[-3, -3]
[-3]
[508]
[508]
[-3, -3]
[-3]
[-3]
[-3]
[-3, -3]
[-3]
[-3]
[-3]
[-3, -3]
[-3]
[508]
[508]
[508, 508]
Pacman died! Score: -501
[7, 7]
[7]
[7, 7]
[7]
[7, 7]
[-493]
[-493]
[-493, -493]
[7]
[7, 7]
[7]
[7, 7]
[7]
[7, 7]
[7, 7]
[7]
[7, 7]
[7]
[7, 7]
[7]
[7, 7]
[7]
[7, 7]
[7]
[7, 7]
[7]
[7, 7]
[7, 7]
[7]
[7, 7]
[7]
[7, 7]
[7]
[7, 7]
[7]
[7, 7]
[7]
[7, 7]
[7, 7]
[7]
[7, 7]
[7]
[7, 7]
[7]
[7, 7]
[7]
[7]
[7, 7]
[7]
[7, 7]
[7]
[7, 7]
[7, 7]
[7]
[7, 7]
[7]
[7, 7]
[7]
[7]
[7]
[7, 7]
[7]
[7, 7]
[7]
[7, 7]
[7, 7]
[7]
[7, 7]
[7]
[7, 7]
[7]
[7]
[7]
[7]
[7, 7]
[-493]
[-493]
[-493]
[7, 7]
[7]
[7]
[7]
[-493, 7]
[-493]
[-492]
[7, 7]
[7]
[7]
[7]
[7]
[7]
[7]
[-492, 7]
[7, -492]
[7, 7]
[7]
[7, 7]
[7]
[7, 7]
[-503]
[-503]
[-503, -503]
[7]
[7, 7]
[7]
[7, 7]
[7]
[7, 7]
[-3, -3]
[-3]
[-3, -3]
[-3]
[-3, -3]
[7]
[7, 7]
[7]
[-3, -3]
[-3]
[-3, -3]
[-3]
[-3, -3]
[-3]
[-502, -3]
[-502]
[-493]
[-493]
[-493, -493]
[-493]
[7, 7]
[7]
[7, 7]
[7]
[7, 7]
[7]
[-493, 7]
[-493]
[7]
[7, 7]
[7]
[7, 7]
[7]
[7, 7]
[-3, -3]
[-3]
[-3, -3]
[-3]
[-3, -3]
[7]
[7]
[7]
[-3, -3]
[-3]
[-3, -3]
[-3]
[-3, -3]
[-3]
[-3]
[-3]
[7, 7]
[7]
[7, 7]
[7]
[7, 7]
[7]
[7]
[7]
[7]
[7, 7]
[-503]
[-503]
[-493]
[-3, -3]
[-3]
[-3]
[-3]
[-493, -3]
[-493]
[-3, -3]
[-3]
[-3]
[-3]
[-502, -3]
[-502]
[-493]
[-493]
[7, 7]
[7]
[7]
[7]
[7, 7]
[7]
[7]
[7, 7]
[7]
[7]
[7]
[7, 7]
[7]
[7]
[-3, -3]
[-3]
[-3]
[-3]
[-3]
[-3]
[-3, -3]
[-3]
[-3]
[-3]
[-3]
[-3]
[7, 7]
[7]
[7]
[-493]
[-493]
[7]
[7]
[7]
[7]
[7, 7]
[7, 7]
[-492]
[-503]
[6]
[6]
[6, 6]
[6]
[6]
[6]
[6, 6]
[6]
[6, 6]
[6]
[6]
[6]
[-503]
[-504]
[-4]
[-4]
[-4]
[-503, -4]
[-503]
[-503]
[-494]
[6]
[6]
[6]
[-494]
[6]
[6]
[6]
[6, 6]
[6]
[6]
[6]
[6, 6]
[6]
[-503]
[-503]
Pacman died! Score: -493
[7, 7]
[7]
[7, 7]
[7]
[7, 7]
[-493]
[-493]
[-493, -493]
[7]
[7, 7]
[7]
[7, 7]
[7]
[7, 7]
[7, 7]
[7]
[7, 7]
[7]
[7, 7]
[7]
[7, 7]
[7]
[7, 7]
[7]
[7, 7]
[7]
[7, 7]
[7, 7]
[7]
[7, 7]
[7]
[7, 7]
[7]
[7, 7]
[7]
[7, 7]
[7]
[7, 7]
[7, 7]
[7]
[7, 7]
[7]
[7, 7]
[7]
[7, 7]
[7]
[7]
[7, 7]
[7]
[7, 7]
[7]
[7, 7]
[7, 7]
[7]
[7, 7]
[7]
[7, 7]
[7]
[7]
[7]
[7, 7]
[7]
[7, 7]
[7]
[7, 7]
[7, 7]
[7]
[7, 7]
[7]
[7, 7]
[7]
[7]
[7]
[7]
[7, 7]
[-493]
[-493]
[-493]
[7, 7]
[7]
[7]
[7]
[-493, 7]
[-493]
[-492]
[7, 7]
[7]
[7]
[7]
[7]
[7]
[7]
[-492, 7]
[7, -492]
[7, 7]
[7]
[7, 7]
[7]
[7, 7]
[-503]
[-503]
[-503, -503]
[7]
[7, 7]
[7]
[7, 7]
[7]
[7, 7]
[-3, -3]
[-3]
[-3, -3]
[-3]
[-3, -3]
[7]
[7, 7]
[7]
[-3, -3]
[-3]
[-3, -3]
[-3]
[-3, -3]
[-3]
[-502, -3]
[-502]
[-493]
[-493]
[-493, -493]
[-493]
[7, 7]
[7]
[7, 7]
[7]
[7, 7]
[7]
[-493, 7]
[-493]
[7]
[7, 7]
[7]
[7, 7]
[7]
[7, 7]
[-3, -3]
[-3]
[-3, -3]
[-3]
[-3, -3]
[7]
[7]
[7]
[-3, -3]
[-3]
[-3, -3]
[-3]
[-3, -3]
[-3]
[-3]
[-3]
[7, 7]
[7]
[7, 7]
[7]
[7, 7]
[7]
[7]
[7]
[7]
[7, 7]
[-503]
[-503]
[-493]
[-3, -3]
[-3]
[-3]
[-3]
[-493, -3]
[-493]
[-3, -3]
[-3]
[-3]
[-3]
[-502, -3]
[-502]
[-493]
[-493]
[7, 7]
[7]
[7]
[7]
[7, 7]
[7]
[7]
[7, 7]
[7]
[7]
[7]
[7, 7]
[7]
[7]
[-3, -3]
[-3]
[-3]
[-3]
[-3]
[-3]
[-3, -3]
[-3]
[-3]
[-3]
[-3]
[-3]
[7, 7]
[7]
[7]
[-493]
[-493]
[7]
[7]
[7]
[7]
[7, 7]
[7, 7]
[-492]
[-503]
[-504]
[-4]
[-4]
[-4, -4]
[-4]
[-503, -4]
[-503]
[-503]
[-494]
[-494]
[-494, -494]
[-494]
[-494]
[-494]
[-494]
[-494]
Pacman died! Score: -492
Average Score: -496.2
Scores:        -496, -503, -495, -492, -495, -503, -492, -501, -493, -492
Win Rate:      0/10 (0.00)
Record:        Loss, Loss, Loss, Loss, Loss, Loss, Loss, Loss, Loss, Loss
